Lab2_1/simulation/qsim/SD.msim.vcd
$comment
	File created using the following command:
		vcd file SD.msim.vcd -direction
$end
$date
	Sat Dec 02 16:00:50 2023
$end
$version
	ModelSim Version 10.1d
$end
$timescale
	1ps
$end
$scope module SD_vlg_vec_tst $end
$var reg 1 ! clk $end
$var reg 1 " rst_n $end
$var reg 1 # X $end
$var wire 1 $ A_n $end
$var wire 1 % A_p $end
$var wire 1 & B_n $end
$var wire 1 ' B_p $end
$var wire 1 ( C_n $end
$var wire 1 ) C_p $end
$var wire 1 * Z $end
$var wire 1 + sampler $end
$scope module i1 $end
$var wire 1 , gnd $end
$var wire 1 - vcc $end
$var wire 1 . unknown $end
$var tri1 1 / devclrn $end
$var tri1 1 0 devpor $end
$var tri1 1 1 devoe $end
$var wire 1 2 A_p~output_o $end
$var wire 1 3 C_p~output_o $end
$var wire 1 4 A_n~output_o $end
$var wire 1 5 B_n~output_o $end
$var wire 1 6 C_n~output_o $end
$var wire 1 7 B_p~output_o $end
$var wire 1 8 Z~output_o $end
$var wire 1 9 clk~input_o $end
$var wire 1 : clk~inputclkctrl_outclk $end
$var wire 1 ; X~input_o $end
$var wire 1 < inst25|inst~combout $end
$var wire 1 = rst_n~input_o $end
$var wire 1 > rst_n~inputclkctrl_outclk $end
$var wire 1 ? inst4|inst~q $end
$var wire 1 @ inst24|inst~0_combout $end
$var wire 1 A inst3|inst~q $end
$var wire 1 B inst23|inst~0_combout $end
$var wire 1 C inst2|inst~q $end
$var wire 1 D inst22|inst~combout $end
$upscope $end
$upscope $end
$enddefinitions $end
#0
$dumpvars
0!
0"
0#
1$
0%
1&
0'
1(
0)
0*
x+
0,
1-
x.
1/
10
11
02
03
14
15
16
07
08
09
0:
0;
1<
0=
0>
0?
0@
0A
0B
0C
0D
$end
#10000
1!
19
1:
0+
#20000
0!
09
0:
1+
#30000
1!
19
1:
0+
#40000
1"
0!
1=
09
1>
0:
1+
#50000
1!
19
1:
0+
1?
13
06
1)
0(
#60000
1#
0!
1;
09
0:
1+
1B
#70000
1!
19
1:
0+
1C
1@
0<
12
04
1%
0$
#80000
0!
09
0:
1+
#90000
1!
19
1:
0+
1A
0?
0B
17
03
05
16
1'
0)
0&
1(
1D
18
1*
#100000
0!
09
0:
1+
#110000
1!
19
1:
0+
0C
02
14
0%
1$
0D
08
0*
#120000
0!
09
0:
1+
#130000
1!
19
1:
0+
#140000
0#
0!
0;
09
0:
1+
1<
#150000
1!
19
1:
0+
1?
0@
13
06
1)
0(
#160000
0!
09
0:
1+
#170000
1!
19
1:
0+
0A
07
15
0'
1&
#180000
0!
09
0:
1+
#190000
1!
19
1:
0+
#200000
1#
0!
1;
09
0:
1+
1B
#210000
1!
19
1:
0+
1C
1@
0<
12
04
1%
0$
#220000
0#
0!
0;
09
0:
1+
0B
1<
#230000
1!
19
1:
0+
0C
1A
0@
02
17
14
05
0%
1'
1$
0&
#240000
1#
0!
1;
09
0:
1+
1B
0<
#250000
1!
19
1:
0+
1C
0A
0?
1@
12
07
03
04
15
16
1%
0'
0)
0$
1&
1(
1D
18
1*
#260000
0#
0!
0;
09
0:
1+
0B
1<
#270000
1!
19
1:
0+
0C
1A
1?
0@
02
17
13
14
05
06
0%
1'
1)
1$
0&
0(
0D
08
0*
#280000
0!
09
0:
1+
#290000
1!
19
1:
0+
0A
07
15
0'
1&
#300000
1#
0!
1;
09
0:
1+
1B
#310000
1!
19
1:
0+
1C
1@
0<
12
04
1%
0$
#320000
0#
0!
0;
09
0:
1+
0B
1<
#330000
1!
19
1:
0+
0C
1A
0@
02
17
14
05
0%
1'
1$
0&
#340000
0!
09
0:
1+
#350000
1!
19
1:
0+
0A
07
15
0'
1&
#360000
1#
0!
1;
09
0:
1+
1B
#370000
1!
19
1:
0+
1C
1@
0<
12
04
1%
0$
#380000
0!
09
0:
1+
#390000
1!
19
1:
0+
1A
0?
0B
17
03
05
16
1'
0)
0&
1(
1D
18
1*
#400000
0#
0!
0;
09
0:
1+
1<
#410000
1!
19
1:
0+
0C
1?
0@
02
13
14
06
0%
1)
1$
0(
0D
08
0*
#420000
0!
09
0:
1+
#430000
1!
19
1:
0+
0A
07
15
0'
1&
#440000
0!
09
0:
1+
#450000
1!
19
1:
0+
#460000
1#
0!
1;
09
0:
1+
1B
#470000
1!
19
1:
0+
1C
1@
0<
12
04
1%
0$
#480000
0!
09
0:
1+
#490000
1!
19
1:
0+
1A
0?
0B
17
03
05
16
1'
0)
0&
1(
1D
18
1*
#500000
0!
09
0:
1+
#510000
1!
19
1:
0+
0C
02
14
0%
1$
0D
08
0*
#520000
0!
09
0:
1+
#530000
1!
19
1:
0+
#540000
0!
09
0:
1+
#550000
1!
19
1:
0+
#560000
0#
0!
0;
09
0:
1+
1<
#570000
1!
19
1:
0+
1?
0@
13
06
1)
0(
#580000
1#
0!
1;
09
0:
1+
1B
0<
#590000
1!
19
1:
0+
1C
0A
0?
1@
12
07
03
04
15
16
1%
0'
0)
0$
1&
1(
1D
18
1*
#600000
0#
0!
0;
09
0:
1+
0B
1<
#610000
1!
19
1:
0+
0C
1A
1?
0@
02
17
13
14
05
06
0%
1'
1)
1$
0&
0(
0D
08
0*
#620000
1#
0!
1;
09
0:
1+
1B
0<
#630000
1!
19
1:
0+
1C
0A
0?
1@
12
07
03
04
15
16
1%
0'
0)
0$
1&
1(
1D
18
1*
#640000
0!
09
0:
1+
#650000
1!
19
1:
0+
1A
0B
17
05
1'
0&
#660000
0!
09
0:
1+
#670000
1!
19
1:
0+
0C
02
14
0%
1$
0D
08
0*
#680000
0#
0!
0;
09
0:
1+
1<
#690000
1!
19
1:
0+
1?
0@
13
06
1)
0(
#700000
0!
09
0:
1+
#710000
1!
19
1:
0+
0A
07
15
0'
1&
#720000
0!
09
0:
1+
#730000
1!
19
1:
0+
#740000
1#
0!
1;
09
0:
1+
1B
#750000
1!
19
1:
0+
1C
1@
0<
12
04
1%
0$
#760000
0!
09
0:
1+
#770000
1!
19
1:
0+
1A
0?
0B
17
03
05
16
1'
0)
0&
1(
1D
18
1*
#780000
0#
0!
0;
09
0:
1+
1<
#790000
1!
19
1:
0+
0C
1?
0@
02
13
14
06
0%
1)
1$
0(
0D
08
0*
#800000
1#
0!
1;
09
0:
1+
1B
0<
#810000
1!
19
1:
0+
1C
0A
0?
1@
12
07
03
04
15
16
1%
0'
0)
0$
1&
1(
1D
18
1*
#820000
0#
0!
0;
09
0:
1+
0B
1<
#830000
1!
19
1:
0+
0C
1A
1?
0@
02
17
13
14
05
06
0%
1'
1)
1$
0&
0(
0D
08
0*
#840000
1#
0!
1;
09
0:
1+
1B
0<
#850000
1!
19
1:
0+
1C
0A
0?
1@
12
07
03
04
15
16
1%
0'
0)
0$
1&
1(
1D
18
1*
#860000
0!
09
0:
1+
#870000
1!
19
1:
0+
1A
0B
17
05
1'
0&
#880000
0!
09
0:
1+
#890000
1!
19
1:
0+
0C
02
14
0%
1$
0D
08
0*
#900000
0#
0!
0;
09
0:
1+
1<
#910000
1!
19
1:
0+
1?
0@
13
06
1)
0(
#920000
1#
0!
1;
09
0:
1+
1B
0<
#930000
1!
19
1:
0+
1C
0A
0?
1@
12
07
03
04
15
16
1%
0'
0)
0$
1&
1(
1D
18
1*
#940000
0!
09
0:
1+
#950000
1!
19
1:
0+
1A
0B
17
05
1'
0&
#960000
0!
09
0:
1+
#970000
1!
19
1:
0+
0C
02
14
0%
1$
0D
08
0*
#980000
0!
09
0:
1+
#990000
0"
1!
0=
19
0>
1:
0+
0A
07
15
0'
1&
