Lab2_3/simulation/qsim/WSC.msim.vcd
$comment
	File created using the following command:
		vcd file WSC.msim.vcd -direction
$end
$date
	Sun Dec 03 12:14:28 2023
$end
$version
	ModelSim Version 10.1d
$end
$timescale
	1ps
$end
$scope module WSC_vlg_vec_tst $end
$var reg 1 ! clk $end
$var reg 1 " load $end
$var reg 1 # rst_n $end
$var reg 1 $ X $end
$var wire 1 % done $end
$var wire 1 & overflow $end
$var wire 1 ' score [3] $end
$var wire 1 ( score [2] $end
$var wire 1 ) score [1] $end
$var wire 1 * score [0] $end
$var wire 1 + sampler $end
$scope module i1 $end
$var wire 1 , gnd $end
$var wire 1 - vcc $end
$var wire 1 . unknown $end
$var tri1 1 / devclrn $end
$var tri1 1 0 devpor $end
$var tri1 1 1 devoe $end
$var wire 1 2 overflow~output_o $end
$var wire 1 3 done~output_o $end
$var wire 1 4 score[3]~output_o $end
$var wire 1 5 score[2]~output_o $end
$var wire 1 6 score[1]~output_o $end
$var wire 1 7 score[0]~output_o $end
$var wire 1 8 clk~input_o $end
$var wire 1 9 clk~inputclkctrl_outclk $end
$var wire 1 : load~input_o $end
$var wire 1 ; X~input_o $end
$var wire 1 < inst2|inst4|inst~0_combout $end
$var wire 1 = rst_n~input_o $end
$var wire 1 > rst_n~inputclkctrl_outclk $end
$var wire 1 ? inst2|inst|inst~q $end
$var wire 1 @ inst2|inst8|inst~0_combout $end
$var wire 1 A inst2|inst1|inst~q $end
$var wire 1 B inst|inst5|inst~combout $end
$var wire 1 C inst|inst2|inst~q $end
$var wire 1 D inst|inst6|inst~0_combout $end
$var wire 1 E inst|inst1|inst~q $end
$var wire 1 F inst|inst4|inst~combout $end
$var wire 1 G inst|inst|inst~q $end
$var wire 1 H inst1|inst26|inst~combout $end
$var wire 1 I inst2|inst10|inst~combout $end
$var wire 1 J inst22|inst28|inst3~0_combout $end
$var wire 1 K inst24|inst29|inst~0_combout $end
$var wire 1 L inst24|inst29|inst~q $end
$var wire 1 M inst24|inst3|inst~combout $end
$var wire 1 N inst24|inst|inst~q $end
$var wire 1 O inst31|inst~combout $end
$var wire 1 P inst23|inst24|inst~q $end
$var wire 1 Q inst1|inst28|inst3~combout $end
$var wire 1 R inst22|inst27|inst3~0_combout $end
$var wire 1 S inst23|inst23|inst~q $end
$var wire 1 T inst21|inst2|inst4~0_combout $end
$var wire 1 U inst22|inst26|inst3~0_combout $end
$var wire 1 V inst23|inst22|inst~q $end
$var wire 1 W inst21|inst1|inst4~0_combout $end
$var wire 1 X inst22|inst25|inst3~0_combout $end
$var wire 1 Y inst23|inst21|inst~q $end
$var wire 1 Z inst21|inst9~0_combout $end
$var wire 1 [ inst24|inst4|inst~combout $end
$upscope $end
$upscope $end
$enddefinitions $end
#0
$dumpvars
0!
1"
1#
0$
0%
0&
0*
0)
0(
0'
x+
0,
1-
x.
1/
10
11
02
03
04
05
06
07
08
09
1:
0;
0<
1=
1>
0?
0@
0A
1B
0C
0D
0E
0F
0G
0H
0I
0J
0K
0L
1M
0N
0O
0P
0Q
0R
0S
0T
0U
0V
0W
0X
0Y
0Z
0[
$end
#20000
1!
18
19
0+
1N
1C
#40000
0"
0!
0:
08
09
1+
1K
#60000
1!
18
19
0+
1L
1O
0M
1[
13
1%
#80000
0!
08
09
1+
#100000
1!
18
19
0+
0N
0O
0[
03
0%
#120000
0!
08
09
1+
#140000
1!
18
19
0+
#160000
0!
08
09
1+
#180000
1!
18
19
0+
#200000
0!
08
09
1+
#220000
1!
18
19
0+
#240000
0!
08
09
1+
#260000
1!
18
19
0+
#280000
1"
0!
1:
08
09
1+
1M
0K
#300000
1!
18
19
0+
1N
0L
#320000
0!
08
09
1+
#340000
1!
18
19
0+
#360000
0!
08
09
1+
#380000
1!
18
19
0+
#400000
0!
08
09
1+
#420000
1!
18
19
0+
#440000
1$
0!
1;
08
09
1+
1D
1@
#460000
1!
18
19
0+
1E
1A
1F
0D
0B
#480000
0!
08
09
1+
#500000
1!
18
19
0+
1G
0E
0C
1Q
1J
1H
0F
1D
1R
1X
1U
#520000
0!
08
09
1+
#540000
1!
18
19
0+
0G
1E
1Y
1V
1S
1P
0Q
0H
0X
0U
14
15
16
17
1'
1(
1)
1*
1X
1U
#560000
0$
0!
0;
08
09
1+
0D
1B
1<
#580000
1!
18
19
0+
0E
1C
1?
0@
0<
#600000
1$
0!
1;
08
09
1+
1D
1<
#620000
1!
18
19
0+
1E
0A
1F
0D
0B
1Q
1I
1@
0<
1T
0J
1W
0U
0X
#640000
0$
0!
0;
08
09
1+
0F
1B
1<
#660000
1!
18
19
0+
0E
1A
0Y
0V
0P
0Q
0I
0@
0<
1X
0W
1U
0R
1J
04
05
07
0'
0(
0*
1Z
1R
0T
0J
0X
12
1&
0Z
0U
02
0&
#680000
1$
0!
1;
08
09
1+
1D
1<
#700000
1!
18
19
0+
1E
0A
1F
0D
0B
1Q
1I
1@
0<
0R
1T
1J
1U
#720000
0$
0!
0;
08
09
1+
0F
1B
1<
#740000
1!
18
19
0+
0E
1A
1V
0S
1P
0Q
0I
0@
0<
1W
0U
0J
15
06
17
1(
0)
1*
0T
1J
1X
1Z
0W
1U
12
1&
0X
0Z
02
0&
#760000
0!
08
09
1+
#780000
1!
18
19
0+
0A
0?
#800000
0!
08
09
1+
#820000
1!
18
19
0+
#840000
0!
08
09
1+
#860000
1!
18
19
0+
#880000
0!
08
09
1+
#900000
1!
18
19
0+
#920000
0!
08
09
1+
#940000
1!
18
19
0+
#960000
0!
08
09
1+
#980000
1!
18
19
0+
